SQL databases and R
…
diagram illustrating inner and left joins

For example, to extract all specimens for the first plot, which has localityID 1, we can do:

localities %>%
  filter(localityID == 18620641) %>%
  inner_join(specimens) %>%
  collect()

#> Joining, by = "localityID"

#> # A tibble: 34 x 19
#>    localityID countryCode stateProvince          county decimalLatitude
#>         <int>       <chr>         <chr>           <chr>           <dbl>
#>  1   18620641         usa    california tuolumne county        37.91355
#>  2   18620641         usa    california tuolumne county        37.91355
#>  3   18620641         usa    california tuolumne county        37.91355
#>  4   18620641         usa    california tuolumne county        37.91355
#>  5   18620641         usa    california tuolumne county        37.91355
#>  6   18620641         usa    california tuolumne county        37.91355
#>  7   18620641         usa    california tuolumne county        37.91355
#>  8   18620641         usa    california tuolumne county        37.91355
#>  9   18620641         usa    california tuolumne county        37.91355
#> 10   18620641         usa    california tuolumne county        37.91355
#> # ... with 24 more rows, and 14 more variables: decimalLongitude <dbl>,
#> #   uuid <chr>, speciesID <int>, institutionCode <chr>,
#> #   collectionCode <chr>, catalogNumber <chr>, recordedBy <chr>,
#> #   eventDate <chr>, year <int>, month <int>, day <int>, weight <dbl>,
#> #   length <dbl>, sex <chr>
…
